…
Based on the method found [here](%22https://github.com/PMassicotte/gtrendsR/issues/269#issuecomment-392784579%22), the following code will average the relative interests (hits) for each week and search term among all samples.

``` r
gtrends.list <- list(X1, X2, X3, X4, X5, X6, X7, X8, X9, X10, X11, X12, X13)
gtrends_averaged <- Reduce('+', gtrends.list) / length(gtrends.list)
```

``` r
gtrends_averaged %>% as_tibble()
```

    ## # A tibble: 585 x 1
    ##     hits
    ##    <dbl>
    ##  1 10.7 
    ##  2 20.2 
    ##  3 17.8 
    ##  4 11.8 
    ##  5  3.85
    ##  6 14.2 
    ##  7 16.9 
    ##  8 12.9 
    ##  9 35.5 
    ## 10 21.4 
    ## # … with 575 more rows
…
**<u>*Comparision via Correlation*:</u>**

While one of the search terms ("juice laundry" in my case) may clearly appear the most similar to the TJL topic, there are systematic and reproducible ways of checking.

We must un-tidy it with spread to check the correlations of the different search\_terms with the topic term.

``` r
y <- sample_average %>% spread(key = "search_term", value = "average_relative_interest")

y
```

    ## # A tibble: 117 x 6
    ##    week_of    `"Juice Laundry… `"The Juice Lau… `Juice Laundry`
    ##    <date>                <dbl>            <dbl>           <dbl>
    ##  1 2016-10-09             8.15            5.77             24.8
    ##  2 2016-10-16            20.2             4.15             27.3
    ##  3 2016-10-23            17.8             5.46             25.9
    ##  4 2016-10-30            11.8             0.769            34.5
    ##  5 2016-11-06             3.85            0                12.8
    ##  6 2016-11-13            14.2             8.85             28.7
    ##  7 2016-11-20            16.9             8.92             18.3
    ##  8 2016-11-27            12.9             2.92             25.8
    ##  9 2016-12-04            38.8             0                58.6
    ## 10 2016-12-11            21.4             6.62             26.7
    ## # … with 107 more rows, and 2 more variables: `The Juice Laundry` <dbl>,
    ## #   `TJL Topic` <dbl>
…
